{
  "name": "Baritone",
  "website": "https://gitlab.com/emc-mods-indrit/baritone",
  "author": "Indrit",
  "minVersion": "13.9.2",
  "version": 3,
  "main": "me.Indrit.baritone.Main",
  "updateLinkOverride": false
}
